{
  "images" : [
    {
      "idiom" : "universal",
      "filename" : "be84d282-9765-47b5-8ea4-ea7ec1584698.png",
      "scale" : "1x"
    },
    {
      "idiom" : "universal",
      "scale" : "2x"
    },
    {
      "idiom" : "universal",
      "scale" : "3x"
    }
  ],
  "info" : {
    "version" : 1,
    "author" : "xcode"
  }
}