{
  "images" : [
    {
      "idiom" : "universal",
      "filename" : "f1a95978-ac45-40b0-91fd-c64bb28bc4b5.png",
      "scale" : "1x"
    },
    {
      "idiom" : "universal",
      "scale" : "2x"
    },
    {
      "idiom" : "universal",
      "scale" : "3x"
    }
  ],
  "info" : {
    "version" : 1,
    "author" : "xcode"
  }
}