{
  "images" : [
    {
      "idiom" : "universal",
      "filename" : "29f5051b-66fb-4163-86bd-8b3fc58a9e74.png",
      "scale" : "1x"
    },
    {
      "idiom" : "universal",
      "scale" : "2x"
    },
    {
      "idiom" : "universal",
      "scale" : "3x"
    }
  ],
  "info" : {
    "version" : 1,
    "author" : "xcode"
  }
}